{
  "ABIRoot": {
    "kind": "Root",
    "name": "TopLevel",
    "printedName": "TopLevel",
    "children": [
      {
        "kind": "Import",
        "name": "TransactionSDK",
        "printedName": "TransactionSDK",
        "declKind": "Import",
        "moduleName": "QPosHardware",
        "declAttributes": [
          "RawDocComment"
        ]
      },
      {
        "kind": "TypeDecl",
        "name": "StubQPOSServiceProtocol",
        "printedName": "StubQPOSServiceProtocol",
        "declKind": "Class",
        "usr": "s:12QPosHardware23StubQPOSServiceProtocolC",
        "mangledName": "$s12QPosHardware23StubQPOSServiceProtocolC",
        "moduleName": "QPosHardware",
        "declAttributes": [
          "AccessControl"
        ],
        "hasMissingDesignatedInitializers": true
      },
      {
        "kind": "Import",
        "name": "TransactionSDK",
        "printedName": "TransactionSDK",
        "declKind": "Import",
        "moduleName": "QPosHardware",
        "declAttributes": [
          "RawDocComment"
        ]
      },
      {
        "kind": "Import",
        "name": "TransactionSDK",
        "printedName": "TransactionSDK",
        "declKind": "Import",
        "moduleName": "QPosHardware",
        "declAttributes": [
          "RawDocComment"
        ]
      },
      {
        "kind": "Import",
        "name": "TransactionSDK",
        "printedName": "TransactionSDK",
        "declKind": "Import",
        "moduleName": "QPosHardware",
        "declAttributes": [
          "RawDocComment"
        ]
      },
      {
        "kind": "Import",
        "name": "TransactionSDK",
        "printedName": "TransactionSDK",
        "declKind": "Import",
        "moduleName": "QPosHardware",
        "declAttributes": [
          "RawDocComment"
        ]
      },
      {
        "kind": "TypeDecl",
        "name": "QposReaderInstaller",
        "printedName": "QposReaderInstaller",
        "children": [
          {
            "kind": "Constructor",
            "name": "init",
            "printedName": "init()",
            "children": [
              {
                "kind": "TypeNominal",
                "name": "QposReaderInstaller",
                "printedName": "QPosHardware.QposReaderInstaller",
                "usr": "s:12QPosHardware19QposReaderInstallerV"
              }
            ],
            "declKind": "Constructor",
            "usr": "s:12QPosHardware19QposReaderInstallerVACycfc",
            "mangledName": "$s12QPosHardware19QposReaderInstallerVACycfc",
            "moduleName": "QPosHardware",
            "declAttributes": [
              "AccessControl"
            ],
            "init_kind": "Designated"
          },
          {
            "kind": "Function",
            "name": "install",
            "printedName": "install()",
            "children": [
              {
                "kind": "TypeNominal",
                "name": "Void",
                "printedName": "()"
              }
            ],
            "declKind": "Func",
            "usr": "s:12QPosHardware19QposReaderInstallerV7installyyF",
            "mangledName": "$s12QPosHardware19QposReaderInstallerV7installyyF",
            "moduleName": "QPosHardware",
            "declAttributes": [
              "AccessControl"
            ],
            "funcSelfKind": "NonMutating"
          }
        ],
        "declKind": "Struct",
        "usr": "s:12QPosHardware19QposReaderInstallerV",
        "mangledName": "$s12QPosHardware19QposReaderInstallerV",
        "moduleName": "QPosHardware",
        "declAttributes": [
          "AccessControl",
          "RawDocComment"
        ],
        "conformances": [
          {
            "kind": "Conformance",
            "name": "ReaderInstaller",
            "printedName": "ReaderInstaller",
            "usr": "s:14TransactionSDK15ReaderInstallerP",
            "mangledName": "$s14TransactionSDK15ReaderInstallerP"
          }
        ]
      },
      {
        "kind": "TypeDecl",
        "name": "QposMocksProviders",
        "printedName": "QposMocksProviders",
        "children": [
          {
            "kind": "Function",
            "name": "provideQposService",
            "printedName": "provideQposService(aConnectionResponse:aQposInfoResponse:aQposIdResponse:aStartEmvResponse:aUpdateFirmwareResponse:aUpdateEmvConfigurationResponse:aSendOnlineResultResponse:aWaitForCardResponse:nfcBatchData:iccTags:)",
            "children": [
              {
                "kind": "TypeNominal",
                "name": "StubQPOSServiceProtocol",
                "printedName": "QPosHardware.StubQPOSServiceProtocol",
                "usr": "s:12QPosHardware23StubQPOSServiceProtocolC"
              },
              {
                "kind": "TypeNominal",
                "name": "Optional",
                "printedName": "((any QPosHardware.QPOSServiceListener) -> ())?",
                "children": [
                  {
                    "kind": "TypeFunc",
                    "name": "Function",
                    "printedName": "(any QPosHardware.QPOSServiceListener) -> ()",
                    "children": [
                      {
                        "kind": "TypeNominal",
                        "name": "Void",
                        "printedName": "()"
                      },
                      {
                        "kind": "TypeNominal",
                        "name": "QPOSServiceListener",
                        "printedName": "any QPosHardware.QPOSServiceListener",
                        "usr": "c:objc(pl)QPOSServiceListener"
                      }
                    ]
                  }
                ],
                "hasDefaultArg": true,
                "usr": "s:Sq"
              },
              {
                "kind": "TypeNominal",
                "name": "Optional",
                "printedName": "((any QPosHardware.QPOSServiceListener) -> ())?",
                "children": [
                  {
                    "kind": "TypeFunc",
                    "name": "Function",
                    "printedName": "(any QPosHardware.QPOSServiceListener) -> ()",
                    "children": [
                      {
                        "kind": "TypeNominal",
                        "name": "Void",
                        "printedName": "()"
                      },
                      {
                        "kind": "TypeNominal",
                        "name": "QPOSServiceListener",
                        "printedName": "any QPosHardware.QPOSServiceListener",
                        "usr": "c:objc(pl)QPOSServiceListener"
                      }
                    ]
                  }
                ],
                "hasDefaultArg": true,
                "usr": "s:Sq"
              },
              {
                "kind": "TypeNominal",
                "name": "Optional",
                "printedName": "((any QPosHardware.QPOSServiceListener) -> ())?",
                "children": [
                  {
                    "kind": "TypeFunc",
                    "name": "Function",
                    "printedName": "(any QPosHardware.QPOSServiceListener) -> ()",
                    "children": [
                      {
                        "kind": "TypeNominal",
                        "name": "Void",
                        "printedName": "()"
                      },
                      {
                        "kind": "TypeNominal",
                        "name": "QPOSServiceListener",
                        "printedName": "any QPosHardware.QPOSServiceListener",
                        "usr": "c:objc(pl)QPOSServiceListener"
                      }
                    ]
                  }
                ],
                "hasDefaultArg": true,
                "usr": "s:Sq"
              },
              {
                "kind": "TypeNominal",
                "name": "Optional",
                "printedName": "((any QPosHardware.QPOSServiceListener) -> ())?",
                "children": [
                  {
                    "kind": "TypeFunc",
                    "name": "Function",
                    "printedName": "(any QPosHardware.QPOSServiceListener) -> ()",
                    "children": [
                      {
                        "kind": "TypeNominal",
                        "name": "Void",
                        "printedName": "()"
                      },
                      {
                        "kind": "TypeNominal",
                        "name": "QPOSServiceListener",
                        "printedName": "any QPosHardware.QPOSServiceListener",
                        "usr": "c:objc(pl)QPOSServiceListener"
                      }
                    ]
                  }
                ],
                "hasDefaultArg": true,
                "usr": "s:Sq"
              },
              {
                "kind": "TypeNominal",
                "name": "Optional",
                "printedName": "((any QPosHardware.QPOSServiceListener) -> ())?",
                "children": [
                  {
                    "kind": "TypeFunc",
                    "name": "Function",
                    "printedName": "(any QPosHardware.QPOSServiceListener) -> ()",
                    "children": [
                      {
                        "kind": "TypeNominal",
                        "name": "Void",
                        "printedName": "()"
                      },
                      {
                        "kind": "TypeNominal",
                        "name": "QPOSServiceListener",
                        "printedName": "any QPosHardware.QPOSServiceListener",
                        "usr": "c:objc(pl)QPOSServiceListener"
                      }
                    ]
                  }
                ],
                "hasDefaultArg": true,
                "usr": "s:Sq"
              },
              {
                "kind": "TypeNominal",
                "name": "Optional",
                "printedName": "((any QPosHardware.QPOSServiceListener) -> ())?",
                "children": [
                  {
                    "kind": "TypeFunc",
                    "name": "Function",
                    "printedName": "(any QPosHardware.QPOSServiceListener) -> ()",
                    "children": [
                      {
                        "kind": "TypeNominal",
                        "name": "Void",
                        "printedName": "()"
                      },
                      {
                        "kind": "TypeNominal",
                        "name": "QPOSServiceListener",
                        "printedName": "any QPosHardware.QPOSServiceListener",
                        "usr": "c:objc(pl)QPOSServiceListener"
                      }
                    ]
                  }
                ],
                "hasDefaultArg": true,
                "usr": "s:Sq"
              },
              {
                "kind": "TypeNominal",
                "name": "Optional",
                "printedName": "((any QPosHardware.QPOSServiceListener) -> ())?",
                "children": [
                  {
                    "kind": "TypeFunc",
                    "name": "Function",
                    "printedName": "(any QPosHardware.QPOSServiceListener) -> ()",
                    "children": [
                      {
                        "kind": "TypeNominal",
                        "name": "Void",
                        "printedName": "()"
                      },
                      {
                        "kind": "TypeNominal",
                        "name": "QPOSServiceListener",
                        "printedName": "any QPosHardware.QPOSServiceListener",
                        "usr": "c:objc(pl)QPOSServiceListener"
                      }
                    ]
                  }
                ],
                "hasDefaultArg": true,
                "usr": "s:Sq"
              },
              {
                "kind": "TypeNominal",
                "name": "Optional",
                "printedName": "((any QPosHardware.QPOSServiceListener) -> ())?",
                "children": [
                  {
                    "kind": "TypeFunc",
                    "name": "Function",
                    "printedName": "(any QPosHardware.QPOSServiceListener) -> ()",
                    "children": [
                      {
                        "kind": "TypeNominal",
                        "name": "Void",
                        "printedName": "()"
                      },
                      {
                        "kind": "TypeNominal",
                        "name": "QPOSServiceListener",
                        "printedName": "any QPosHardware.QPOSServiceListener",
                        "usr": "c:objc(pl)QPOSServiceListener"
                      }
                    ]
                  }
                ],
                "hasDefaultArg": true,
                "usr": "s:Sq"
              },
              {
                "kind": "TypeNominal",
                "name": "Optional",
                "printedName": "(() -> [Swift.AnyHashable : Any])?",
                "children": [
                  {
                    "kind": "TypeFunc",
                    "name": "Function",
                    "printedName": "() -> [Swift.AnyHashable : Any]",
                    "children": [
                      {
                        "kind": "TypeNominal",
                        "name": "Dictionary",
                        "printedName": "[Swift.AnyHashable : Any]",
                        "children": [
                          {
                            "kind": "TypeNominal",
                            "name": "AnyHashable",
                            "printedName": "Swift.AnyHashable",
                            "usr": "s:s11AnyHashableV"
                          },
                          {
                            "kind": "TypeNominal",
                            "name": "ProtocolComposition",
                            "printedName": "Any"
                          }
                        ],
                        "usr": "s:SD"
                      },
                      {
                        "kind": "TypeNominal",
                        "name": "Void",
                        "printedName": "()"
                      }
                    ]
                  }
                ],
                "hasDefaultArg": true,
                "usr": "s:Sq"
              },
              {
                "kind": "TypeNominal",
                "name": "Optional",
                "printedName": "(() -> [Swift.AnyHashable : Any])?",
                "children": [
                  {
                    "kind": "TypeFunc",
                    "name": "Function",
                    "printedName": "() -> [Swift.AnyHashable : Any]",
                    "children": [
                      {
                        "kind": "TypeNominal",
                        "name": "Dictionary",
                        "printedName": "[Swift.AnyHashable : Any]",
                        "children": [
                          {
                            "kind": "TypeNominal",
                            "name": "AnyHashable",
                            "printedName": "Swift.AnyHashable",
                            "usr": "s:s11AnyHashableV"
                          },
                          {
                            "kind": "TypeNominal",
                            "name": "ProtocolComposition",
                            "printedName": "Any"
                          }
                        ],
                        "usr": "s:SD"
                      },
                      {
                        "kind": "TypeNominal",
                        "name": "Void",
                        "printedName": "()"
                      }
                    ]
                  }
                ],
                "hasDefaultArg": true,
                "usr": "s:Sq"
              }
            ],
            "declKind": "Func",
            "usr": "s:12QPosHardware18QposMocksProvidersO07provideC7Service19aConnectionResponse01ac4InfoI001ac2IdI009aStartEmvI0015aUpdateFirmwareI001anm13ConfigurationI0017aSendOnlineResultI0012aWaitForCardI012nfcBatchData7iccTagsAA23StubQPOSServiceProtocolCySo19QPOSServiceListener_pcSg_A7RSDys11AnyHashableVypGycSgAVtFZ",
            "mangledName": "$s12QPosHardware18QposMocksProvidersO07provideC7Service19aConnectionResponse01ac4InfoI001ac2IdI009aStartEmvI0015aUpdateFirmwareI001anm13ConfigurationI0017aSendOnlineResultI0012aWaitForCardI012nfcBatchData7iccTagsAA23StubQPOSServiceProtocolCySo19QPOSServiceListener_pcSg_A7RSDys11AnyHashableVypGycSgAVtFZ",
            "moduleName": "QPosHardware",
            "static": true,
            "declAttributes": [
              "AccessControl"
            ],
            "funcSelfKind": "NonMutating"
          }
        ],
        "declKind": "Enum",
        "usr": "s:12QPosHardware18QposMocksProvidersO",
        "mangledName": "$s12QPosHardware18QposMocksProvidersO",
        "moduleName": "QPosHardware",
        "declAttributes": [
          "AccessControl",
          "RawDocComment"
        ]
      },
      {
        "kind": "Import",
        "name": "TransactionSDK",
        "printedName": "TransactionSDK",
        "declKind": "Import",
        "moduleName": "QPosHardware",
        "declAttributes": [
          "RawDocComment"
        ]
      },
      {
        "kind": "Import",
        "name": "TransactionSDK",
        "printedName": "TransactionSDK",
        "declKind": "Import",
        "moduleName": "QPosHardware",
        "declAttributes": [
          "RawDocComment"
        ]
      },
      {
        "kind": "Import",
        "name": "TransactionSDK",
        "printedName": "TransactionSDK",
        "declKind": "Import",
        "moduleName": "QPosHardware",
        "declAttributes": [
          "RawDocComment"
        ]
      },
      {
        "kind": "Import",
        "name": "TransactionSDK",
        "printedName": "TransactionSDK",
        "declKind": "Import",
        "moduleName": "QPosHardware",
        "declAttributes": [
          "RawDocComment"
        ]
      },
      {
        "kind": "TypeDecl",
        "name": "QposMiniFirmwareRestoreDeviceMapper",
        "printedName": "QposMiniFirmwareRestoreDeviceMapper",
        "children": [
          {
            "kind": "Function",
            "name": "canMap",
            "printedName": "canMap(device:)",
            "children": [
              {
                "kind": "TypeNominal",
                "name": "Bool",
                "printedName": "Swift.Bool",
                "usr": "s:Sb"
              },
              {
                "kind": "TypeNominal",
                "name": "Device",
                "printedName": "any TransactionSDK.Device",
                "usr": "s:14TransactionSDK6DeviceP"
              }
            ],
            "declKind": "Func",
            "usr": "s:12QPosHardware35QposMiniFirmwareRestoreDeviceMapperV6canMap6deviceSb14TransactionSDK0G0_p_tF",
            "mangledName": "$s12QPosHardware35QposMiniFirmwareRestoreDeviceMapperV6canMap6deviceSb14TransactionSDK0G0_p_tF",
            "moduleName": "QPosHardware",
            "declAttributes": [
              "AccessControl"
            ],
            "funcSelfKind": "NonMutating"
          },
          {
            "kind": "Function",
            "name": "asDevice",
            "printedName": "asDevice(device:)",
            "children": [
              {
                "kind": "TypeNominal",
                "name": "Optional",
                "printedName": "(any TransactionSDK.Device)?",
                "children": [
                  {
                    "kind": "TypeNominal",
                    "name": "Device",
                    "printedName": "any TransactionSDK.Device",
                    "usr": "s:14TransactionSDK6DeviceP"
                  }
                ],
                "usr": "s:Sq"
              },
              {
                "kind": "TypeNominal",
                "name": "Device",
                "printedName": "any TransactionSDK.Device",
                "usr": "s:14TransactionSDK6DeviceP"
              }
            ],
            "declKind": "Func",
            "usr": "s:12QPosHardware35QposMiniFirmwareRestoreDeviceMapperV02asG06device14TransactionSDK0G0_pSgAfG_p_tF",
            "mangledName": "$s12QPosHardware35QposMiniFirmwareRestoreDeviceMapperV02asG06device14TransactionSDK0G0_pSgAfG_p_tF",
            "moduleName": "QPosHardware",
            "declAttributes": [
              "AccessControl"
            ],
            "funcSelfKind": "NonMutating"
          },
          {
            "kind": "Constructor",
            "name": "init",
            "printedName": "init()",
            "children": [
              {
                "kind": "TypeNominal",
                "name": "QposMiniFirmwareRestoreDeviceMapper",
                "printedName": "QPosHardware.QposMiniFirmwareRestoreDeviceMapper",
                "usr": "s:12QPosHardware35QposMiniFirmwareRestoreDeviceMapperV"
              }
            ],
            "declKind": "Constructor",
            "usr": "s:12QPosHardware35QposMiniFirmwareRestoreDeviceMapperVACycfc",
            "mangledName": "$s12QPosHardware35QposMiniFirmwareRestoreDeviceMapperVACycfc",
            "moduleName": "QPosHardware",
            "declAttributes": [
              "AccessControl"
            ],
            "init_kind": "Designated"
          }
        ],
        "declKind": "Struct",
        "usr": "s:12QPosHardware35QposMiniFirmwareRestoreDeviceMapperV",
        "mangledName": "$s12QPosHardware35QposMiniFirmwareRestoreDeviceMapperV",
        "moduleName": "QPosHardware",
        "declAttributes": [
          "AccessControl"
        ],
        "conformances": [
          {
            "kind": "Conformance",
            "name": "DeviceMapper",
            "printedName": "DeviceMapper",
            "usr": "s:14TransactionSDK12DeviceMapperP",
            "mangledName": "$s14TransactionSDK12DeviceMapperP"
          }
        ]
      },
      {
        "kind": "Import",
        "name": "TransactionSDK",
        "printedName": "TransactionSDK",
        "declKind": "Import",
        "moduleName": "QPosHardware",
        "declAttributes": [
          "RawDocComment"
        ]
      },
      {
        "kind": "Import",
        "name": "TransactionSDK",
        "printedName": "TransactionSDK",
        "declKind": "Import",
        "moduleName": "QPosHardware",
        "declAttributes": [
          "RawDocComment"
        ]
      },
      {
        "kind": "TypeDecl",
        "name": "QposConfigurationFactory",
        "printedName": "QposConfigurationFactory",
        "declKind": "Struct",
        "usr": "s:12QPosHardware24QposConfigurationFactoryV",
        "mangledName": "$s12QPosHardware24QposConfigurationFactoryV",
        "moduleName": "QPosHardware",
        "declAttributes": [
          "AccessControl"
        ]
      },
      {
        "kind": "Import",
        "name": "TransactionSDK",
        "printedName": "TransactionSDK",
        "declKind": "Import",
        "moduleName": "QPosHardware",
        "declAttributes": [
          "RawDocComment"
        ]
      },
      {
        "kind": "Import",
        "name": "TransactionSDK",
        "printedName": "TransactionSDK",
        "declKind": "Import",
        "moduleName": "QPosHardware",
        "declAttributes": [
          "RawDocComment"
        ]
      },
      {
        "kind": "TypeDecl",
        "name": "QposReaderConfigurationFactory",
        "printedName": "QposReaderConfigurationFactory",
        "children": [
          {
            "kind": "Function",
            "name": "qposFirmwareFiles",
            "printedName": "qposFirmwareFiles(firmware:)",
            "children": [
              {
                "kind": "TypeNominal",
                "name": "ReaderConfigurationFiles",
                "printedName": "any TransactionSDK.ReaderConfigurationFiles",
                "usr": "s:14TransactionSDK24ReaderConfigurationFilesP"
              },
              {
                "kind": "TypeNominal",
                "name": "URL",
                "printedName": "Foundation.URL",
                "usr": "s:10Foundation3URLV"
              }
            ],
            "declKind": "Func",
            "usr": "s:12QPosHardware30QposReaderConfigurationFactoryO17qposFirmwareFiles8firmware14TransactionSDK0deI0_p10Foundation3URLV_tFZ",
            "mangledName": "$s12QPosHardware30QposReaderConfigurationFactoryO17qposFirmwareFiles8firmware14TransactionSDK0deI0_p10Foundation3URLV_tFZ",
            "moduleName": "QPosHardware",
            "static": true,
            "declAttributes": [
              "AccessControl",
              "RawDocComment"
            ],
            "funcSelfKind": "NonMutating"
          },
          {
            "kind": "Function",
            "name": "qposEmvFiles",
            "printedName": "qposEmvFiles(emvConfiguration:)",
            "children": [
              {
                "kind": "TypeNominal",
                "name": "ReaderConfigurationFiles",
                "printedName": "any TransactionSDK.ReaderConfigurationFiles",
                "usr": "s:14TransactionSDK24ReaderConfigurationFilesP"
              },
              {
                "kind": "TypeNominal",
                "name": "URL",
                "printedName": "Foundation.URL",
                "usr": "s:10Foundation3URLV"
              }
            ],
            "declKind": "Func",
            "usr": "s:12QPosHardware30QposReaderConfigurationFactoryO12qposEmvFiles03emvE014TransactionSDK0deI0_p10Foundation3URLV_tFZ",
            "mangledName": "$s12QPosHardware30QposReaderConfigurationFactoryO12qposEmvFiles03emvE014TransactionSDK0deI0_p10Foundation3URLV_tFZ",
            "moduleName": "QPosHardware",
            "static": true,
            "declAttributes": [
              "AccessControl",
              "RawDocComment"
            ],
            "funcSelfKind": "NonMutating"
          },
          {
            "kind": "Function",
            "name": "qposFirmwareEmvFiles",
            "printedName": "qposFirmwareEmvFiles(firmwareEmv:)",
            "children": [
              {
                "kind": "TypeNominal",
                "name": "ReaderConfigurationFiles",
                "printedName": "any TransactionSDK.ReaderConfigurationFiles",
                "usr": "s:14TransactionSDK24ReaderConfigurationFilesP"
              },
              {
                "kind": "TypeNominal",
                "name": "URL",
                "printedName": "Foundation.URL",
                "usr": "s:10Foundation3URLV"
              }
            ],
            "declKind": "Func",
            "usr": "s:12QPosHardware30QposReaderConfigurationFactoryO20qposFirmwareEmvFiles08firmwareI014TransactionSDK0deJ0_p10Foundation3URLV_tFZ",
            "mangledName": "$s12QPosHardware30QposReaderConfigurationFactoryO20qposFirmwareEmvFiles08firmwareI014TransactionSDK0deJ0_p10Foundation3URLV_tFZ",
            "moduleName": "QPosHardware",
            "static": true,
            "declAttributes": [
              "AccessControl",
              "RawDocComment"
            ],
            "funcSelfKind": "NonMutating"
          }
        ],
        "declKind": "Enum",
        "usr": "s:12QPosHardware30QposReaderConfigurationFactoryO",
        "mangledName": "$s12QPosHardware30QposReaderConfigurationFactoryO",
        "moduleName": "QPosHardware",
        "declAttributes": [
          "AccessControl"
        ]
      },
      {
        "kind": "Import",
        "name": "TransactionSDK",
        "printedName": "TransactionSDK",
        "declKind": "Import",
        "moduleName": "QPosHardware",
        "declAttributes": [
          "RawDocComment"
        ]
      },
      {
        "kind": "Import",
        "name": "TransactionSDK",
        "printedName": "TransactionSDK",
        "declKind": "Import",
        "moduleName": "QPosHardware",
        "declAttributes": [
          "RawDocComment"
        ]
      },
      {
        "kind": "TypeDecl",
        "name": "QPOSService",
        "printedName": "QPOSService",
        "declKind": "Class",
        "usr": "c:objc(cs)QPOSService",
        "moduleName": "QPosHardware",
        "isOpen": true,
        "objc_name": "QPOSService",
        "declAttributes": [
          "ObjC",
          "Dynamic"
        ],
        "superclassUsr": "c:objc(cs)NSObject",
        "isExternal": true,
        "inheritsConvenienceInitializers": true,
        "superclassNames": [
          "ObjectiveC.NSObject"
        ],
        "conformances": [
          {
            "kind": "Conformance",
            "name": "Equatable",
            "printedName": "Equatable",
            "usr": "s:SQ",
            "mangledName": "$sSQ"
          },
          {
            "kind": "Conformance",
            "name": "Hashable",
            "printedName": "Hashable",
            "usr": "s:SH",
            "mangledName": "$sSH"
          },
          {
            "kind": "Conformance",
            "name": "CVarArg",
            "printedName": "CVarArg",
            "usr": "s:s7CVarArgP",
            "mangledName": "$ss7CVarArgP"
          },
          {
            "kind": "Conformance",
            "name": "_KeyValueCodingAndObservingPublishing",
            "printedName": "_KeyValueCodingAndObservingPublishing",
            "usr": "s:10Foundation37_KeyValueCodingAndObservingPublishingP",
            "mangledName": "$s10Foundation37_KeyValueCodingAndObservingPublishingP"
          },
          {
            "kind": "Conformance",
            "name": "_KeyValueCodingAndObserving",
            "printedName": "_KeyValueCodingAndObserving",
            "usr": "s:10Foundation27_KeyValueCodingAndObservingP",
            "mangledName": "$s10Foundation27_KeyValueCodingAndObservingP"
          },
          {
            "kind": "Conformance",
            "name": "CustomStringConvertible",
            "printedName": "CustomStringConvertible",
            "usr": "s:s23CustomStringConvertibleP",
            "mangledName": "$ss23CustomStringConvertibleP"
          },
          {
            "kind": "Conformance",
            "name": "CustomDebugStringConvertible",
            "printedName": "CustomDebugStringConvertible",
            "usr": "s:s28CustomDebugStringConvertibleP",
            "mangledName": "$ss28CustomDebugStringConvertibleP"
          }
        ]
      }
    ],
    "json_format_version": 8
  },
  "ConstValues": [
    {
      "filePath": "\/Users\/ci_user\/.gitlab-runner-17\/builds\/Art8TJLk_\/0\/geopagos\/apps\/libraries\/transaction-sdk-ios\/QPosHardware\/QPosHardware\/HardwareReaders\/QPOSMiniFirmwareRestoreHardwareReader.swift",
      "kind": "StringLiteral",
      "offset": 209,
      "length": 37,
      "value": "\"QPosHardware.QPOSMiniFirmwareRestoreHardwareReader\""
    },
    {
      "filePath": "\/Users\/ci_user\/.gitlab-runner-17\/builds\/Art8TJLk_\/0\/geopagos\/apps\/libraries\/transaction-sdk-ios\/QPosHardware\/QPosHardware\/HardwareReaders\/QPOSHardwareReader.swift",
      "kind": "StringLiteral",
      "offset": 193,
      "length": 18,
      "value": "\"QPosHardware.QPOSHardwareReader\""
    },
    {
      "filePath": "\/Users\/ci_user\/.gitlab-runner-17\/builds\/Art8TJLk_\/0\/geopagos\/apps\/libraries\/transaction-sdk-ios\/QPosHardware\/QPosHardware\/HardwareReaders\/PosServiceForQpos.swift",
      "kind": "BooleanLiteral",
      "offset": 550,
      "length": 5,
      "value": "false"
    },
    {
      "filePath": "\/Users\/ci_user\/.gitlab-runner-17\/builds\/Art8TJLk_\/0\/geopagos\/apps\/libraries\/transaction-sdk-ios\/QPosHardware\/QPosHardware\/HardwareReaders\/PosServiceForQpos.swift",
      "kind": "Array",
      "offset": 721,
      "length": 2,
      "value": "[]"
    },
    {
      "filePath": "\/Users\/ci_user\/.gitlab-runner-17\/builds\/Art8TJLk_\/0\/geopagos\/apps\/libraries\/transaction-sdk-ios\/QPosHardware\/QPosHardware\/HardwareReaders\/PosServiceForQpos.swift",
      "kind": "IntegerLiteral",
      "offset": 783,
      "length": 1,
      "value": "0"
    },
    {
      "filePath": "\/Users\/ci_user\/.gitlab-runner-17\/builds\/Art8TJLk_\/0\/geopagos\/apps\/libraries\/transaction-sdk-ios\/QPosHardware\/QPosHardware\/HardwareReaders\/PosServiceForQpos.swift",
      "kind": "IntegerLiteral",
      "offset": 804,
      "length": 1,
      "value": "1"
    },
    {
      "filePath": "\/Users\/ci_user\/.gitlab-runner-17\/builds\/Art8TJLk_\/0\/geopagos\/apps\/libraries\/transaction-sdk-ios\/QPosHardware\/QPosHardware\/HardwareReaders\/PosServiceForQpos.swift",
      "kind": "IntegerLiteral",
      "offset": 783,
      "length": 1,
      "value": "0"
    },
    {
      "filePath": "\/Users\/ci_user\/.gitlab-runner-17\/builds\/Art8TJLk_\/0\/geopagos\/apps\/libraries\/transaction-sdk-ios\/QPosHardware\/QPosHardware\/HardwareReaders\/PosServiceForQpos.swift",
      "kind": "IntegerLiteral",
      "offset": 804,
      "length": 1,
      "value": "1"
    },
    {
      "filePath": "\/Users\/ci_user\/.gitlab-runner-17\/builds\/Art8TJLk_\/0\/geopagos\/apps\/libraries\/transaction-sdk-ios\/QPosHardware\/QPosHardware\/HardwareReaders\/PosServiceForQpos.swift",
      "kind": "IntegerLiteral",
      "offset": 783,
      "length": 1,
      "value": "0"
    },
    {
      "filePath": "\/Users\/ci_user\/.gitlab-runner-17\/builds\/Art8TJLk_\/0\/geopagos\/apps\/libraries\/transaction-sdk-ios\/QPosHardware\/QPosHardware\/HardwareReaders\/PosServiceForQpos.swift",
      "kind": "IntegerLiteral",
      "offset": 804,
      "length": 1,
      "value": "1"
    },
    {
      "filePath": "\/Users\/ci_user\/.gitlab-runner-17\/builds\/Art8TJLk_\/0\/geopagos\/apps\/libraries\/transaction-sdk-ios\/QPosHardware\/QPosHardware\/HardwareReaders\/PosServiceForQpos.swift",
      "kind": "IntegerLiteral",
      "offset": 900,
      "length": 1,
      "value": "0"
    },
    {
      "filePath": "\/Users\/ci_user\/.gitlab-runner-17\/builds\/Art8TJLk_\/0\/geopagos\/apps\/libraries\/transaction-sdk-ios\/QPosHardware\/QPosHardware\/HardwareReaders\/PosServiceForQpos.swift",
      "kind": "IntegerLiteral",
      "offset": 931,
      "length": 1,
      "value": "1"
    },
    {
      "filePath": "\/Users\/ci_user\/.gitlab-runner-17\/builds\/Art8TJLk_\/0\/geopagos\/apps\/libraries\/transaction-sdk-ios\/QPosHardware\/QPosHardware\/HardwareReaders\/PosServiceForQpos.swift",
      "kind": "IntegerLiteral",
      "offset": 900,
      "length": 1,
      "value": "0"
    },
    {
      "filePath": "\/Users\/ci_user\/.gitlab-runner-17\/builds\/Art8TJLk_\/0\/geopagos\/apps\/libraries\/transaction-sdk-ios\/QPosHardware\/QPosHardware\/HardwareReaders\/PosServiceForQpos.swift",
      "kind": "IntegerLiteral",
      "offset": 931,
      "length": 1,
      "value": "1"
    },
    {
      "filePath": "\/Users\/ci_user\/.gitlab-runner-17\/builds\/Art8TJLk_\/0\/geopagos\/apps\/libraries\/transaction-sdk-ios\/QPosHardware\/QPosHardware\/HardwareReaders\/PosServiceForQpos.swift",
      "kind": "IntegerLiteral",
      "offset": 900,
      "length": 1,
      "value": "0"
    },
    {
      "filePath": "\/Users\/ci_user\/.gitlab-runner-17\/builds\/Art8TJLk_\/0\/geopagos\/apps\/libraries\/transaction-sdk-ios\/QPosHardware\/QPosHardware\/HardwareReaders\/PosServiceForQpos.swift",
      "kind": "IntegerLiteral",
      "offset": 931,
      "length": 1,
      "value": "1"
    },
    {
      "filePath": "\/Users\/ci_user\/.gitlab-runner-17\/builds\/Art8TJLk_\/0\/geopagos\/apps\/libraries\/transaction-sdk-ios\/QPosHardware\/QPosHardware\/HardwareReaders\/PosServiceForQpos.swift",
      "kind": "IntegerLiteral",
      "offset": 973,
      "length": 2,
      "value": "30"
    },
    {
      "filePath": "\/Users\/ci_user\/.gitlab-runner-17\/builds\/Art8TJLk_\/0\/geopagos\/apps\/libraries\/transaction-sdk-ios\/QPosHardware\/QPosHardware\/HardwareReaders\/PosServiceForQpos.swift",
      "kind": "IntegerLiteral",
      "offset": 1006,
      "length": 1,
      "value": "0"
    },
    {
      "filePath": "\/Users\/ci_user\/.gitlab-runner-17\/builds\/Art8TJLk_\/0\/geopagos\/apps\/libraries\/transaction-sdk-ios\/QPosHardware\/QPosHardware\/HardwareReaders\/PosServiceForQpos.swift",
      "kind": "IntegerLiteral",
      "offset": 1039,
      "length": 1,
      "value": "6"
    },
    {
      "filePath": "\/Users\/ci_user\/.gitlab-runner-17\/builds\/Art8TJLk_\/0\/geopagos\/apps\/libraries\/transaction-sdk-ios\/QPosHardware\/QPosHardware\/HardwareReaders\/PosServiceForQpos.swift",
      "kind": "StringLiteral",
      "offset": 1074,
      "length": 13,
      "value": "\"INGRESE PIN\""
    },
    {
      "filePath": "\/Users\/ci_user\/.gitlab-runner-17\/builds\/Art8TJLk_\/0\/geopagos\/apps\/libraries\/transaction-sdk-ios\/QPosHardware\/QPosHardware\/HardwareReaders\/PosServiceForQpos.swift",
      "kind": "StringLiteral",
      "offset": 191,
      "length": 17,
      "value": "\"QPosHardware.PosServiceForQpos\""
    }
  ]
}